…
``` r
print(data)
```

    ## # A tibble: 36 x 17
    ##    id    item  vowel language f1_cent f2_cent    tl f1_20 f1_35 f1_50 f1_65
    ##    <lgl> <chr> <chr> <chr>      <dbl>   <dbl> <dbl> <dbl> <dbl> <dbl> <dbl>
    ##  1 NA    meet  i     en          323.   2721. 1394.  386.  362.  353.  262.
    ##  2 NA    beat  i     en          259.   2164. 1416.  279.  265.  251.  264.
    ##  3 NA    feet  i     en          310.   2257. 1572.  350   333.  312.  294.
    ##  4 NA    seat  i     en          281.   1893. 2003.  320.  300.  277.  249.
    ##  5 NA    heat  i     en          287.   2346. 2560.  272.  325.  304.  270.
    ##  6 NA    fleet i     en          310.   2388. 1551.  354.  314   276.  307.
    ##  7 NA    moss  a     en          652.   1232.  730.  734.  836.  666.  705.
    ##  8 NA    bot   a     en          834.   1232.  470.  791.  754.  882.  876.
    ##  9 NA    foug… a     en          786.   1288.  620.  795.  726.  734.  885.
    ## 10 NA    soug… a     en          697.   1337.  480.  632.  694.  746.  707.
    ## # … with 26 more rows, and 6 more variables: f1_80 <dbl>, f2_20 <dbl>,
    ## #   f2_35 <dbl>, f2_50 <dbl>, f2_65 <dbl>, f2_80 <dbl>
…
